<?xml version="1.0" encoding="utf-8"?>
<!-- Generator: Adobe Illustrator 16.0.0, SVG Export Plug-In . SVG Version: 6.00 Build 0)  -->
<!DOCTYPE svg PUBLIC "-//W3C//DTD SVG 1.1//EN" "http://www.w3.org/Graphics/SVG/1.1/DTD/svg11.dtd">
<svg version="1.1" id="Layer_1" xmlns="http://www.w3.org/2000/svg" xmlns:xlink="http://www.w3.org/1999/xlink" x="0px" y="0px"
	 width="10px" height="10px" viewBox="0 0 10 10" enable-background="new 0 0 10 10" xml:space="preserve">
<g>
	<g>
		<path fill="#231F20" d="M4.809,9.053c-0.807,0-2.727-0.039-3.142-0.39c-0.724-0.61-0.237-1.621-0.028-2.051
			c0.169-0.354,1.566-1.241,2.578-1.64l0.078-0.031L5,6.02l0.709-1.083h0.076l0.018,0.006c1.031,0.395,2.438,1.31,2.65,1.658
			c0.139,0.225,0.241,0.622,0.26,1.012c0.014,0.27-0.004,0.767-0.273,1.042C8.396,8.702,8.258,8.844,7.13,8.952
			C6.473,9.017,5.625,9.053,4.809,9.053z M4.213,5.2c-1.06,0.436-2.266,1.254-2.386,1.503c-0.187,0.388-0.625,1.295-0.026,1.8
			c0.245,0.206,1.427,0.341,3.008,0.341c1.859,0,3.327-0.177,3.48-0.334C8.647,8.139,8.5,7.076,8.275,6.711
			C8.106,6.438,6.82,5.577,5.809,5.17L5,6.402L4.213,5.2z"/>
	</g>
	<g>
		<path fill="#231F20" d="M5,5.045c-0.897,0-1.629-0.918-1.629-2.048c0-1.129,0.732-2.05,1.629-2.05c0.9,0,1.63,0.92,1.63,2.05
			C6.63,4.127,5.9,5.045,5,5.045z M5,1.158c-0.782,0-1.418,0.825-1.418,1.839c0,1.015,0.636,1.839,1.418,1.839
			c0.784,0,1.421-0.825,1.421-1.839C6.421,1.983,5.784,1.158,5,1.158z"/>
	</g>
</g>
</svg>
